<svg height="277.8" viewBox="-10.9 -266.0 276.9 277.8" width="276.9" xmlns="http://www.w3.org/2000/svg">
	<g>
		<line stroke="black" stroke-width="1" x1="9.0" x2="84.0" y1="-27.4" y2="-73.7" />
		<line stroke="black" stroke-width="1" x1="43.7" x2="84.0" y1="-8.0" y2="-73.7" />
		<line stroke="black" stroke-width="1" x1="54.5" x2="84.0" y1="-33.4" y2="-73.7" />
		<line stroke="black" stroke-width="1" x1="1.1" x2="84.0" y1="-20.5" y2="-73.7" />
		<line stroke="black" stroke-width="1" x1="2.0" x2="84.0" y1="-17.1" y2="-73.7" />
		<line stroke="black" stroke-width="1" x1="27.6" x2="84.0" y1="-25.6" y2="-73.7" />
		<line stroke="black" stroke-width="1" x1="40.9" x2="84.0" y1="-38.2" y2="-73.7" />
		<line stroke="black" stroke-width="1" x1="36.0" x2="84.0" y1="-56.7" y2="-73.7" />
		<line stroke="black" stroke-width="1" x1="45.3" x2="84.0" y1="-40.4" y2="-73.7" />
		<line stroke="black" stroke-width="1" x1="42.5" x2="84.0" y1="-40.9" y2="-73.7" />
		<line stroke="black" stroke-width="1" x1="20.0" x2="84.0" y1="-65.0" y2="-73.7" />
		<line stroke="black" stroke-width="1" x1="54.1" x2="84.0" y1="-39.3" y2="-73.7" />
		<line stroke="black" stroke-width="1" x1="31.4" x2="84.0" y1="-48.2" y2="-73.7" />
		<line stroke="black" stroke-width="1" x1="31.7" x2="84.0" y1="-41.0" y2="-73.7" />
		<line stroke="black" stroke-width="1" x1="26.9" x2="84.0" y1="-94.4" y2="-94.4" />
		<line stroke="black" stroke-width="1" x1="7.5" x2="84.0" y1="-125.4" y2="-125.4" />
		<line stroke="black" stroke-width="1" x1="12.2" x2="84.0" y1="-84.0" y2="-84.0" />
		<line stroke="black" stroke-width="1" x1="18.9" x2="84.0" y1="-98.3" y2="-98.3" />
		<line stroke="black" stroke-width="1" x1="41.0" x2="84.0" y1="-76.0" y2="-76.0" />
		<line stroke="black" stroke-width="1" x1="59.5" x2="84.0" y1="-120.2" y2="-120.2" />
		<line stroke="black" stroke-width="1" x1="49.1" x2="84.0" y1="-88.5" y2="-88.5" />
		<line stroke="black" stroke-width="1" x1="41.5" x2="84.0" y1="-93.5" y2="-93.5" />
		<line stroke="black" stroke-width="1" x1="45.0" x2="84.0" y1="-110.6" y2="-110.6" />
		<line stroke="black" stroke-width="1" x1="34.6" x2="84.0" y1="-116.6" y2="-116.6" />
		<line stroke="black" stroke-width="1" x1="33.7" x2="84.0" y1="-117.4" y2="-117.4" />
		<line stroke="black" stroke-width="1" x1="119.8" x2="119.8" y1="-45.7" y2="-73.7" />
		<line stroke="black" stroke-width="1" x1="65.8" x2="84.0" y1="-26.0" y2="-73.7" />
		<line stroke="black" stroke-width="1" x1="95.1" x2="95.1" y1="-59.8" y2="-73.7" />
		<line stroke="black" stroke-width="1" x1="122.0" x2="122.0" y1="-52.0" y2="-73.7" />
		<line stroke="black" stroke-width="1" x1="79.4" x2="84.0" y1="-26.6" y2="-73.7" />
		<line stroke="black" stroke-width="1" x1="116.5" x2="116.5" y1="-61.6" y2="-73.7" />
		<line stroke="black" stroke-width="1" x1="68.9" x2="84.0" y1="-72.7" y2="-73.7" />
		<line stroke="black" stroke-width="1" x1="126.5" x2="126.5" y1="-23.2" y2="-73.7" />
		<line stroke="black" stroke-width="1" x1="70.4" x2="84.0" y1="-42.6" y2="-73.7" />
		<line stroke="black" stroke-width="1" x1="88.0" x2="88.0" y1="-24.7" y2="-73.7" />
		<line stroke="black" stroke-width="1" x1="66.3" x2="84.0" y1="-108.6" y2="-108.6" />
		<line stroke="black" stroke-width="1" x1="111.7" x2="111.7" y1="-122.3" y2="-122.3" />
		<line stroke="black" stroke-width="1" x1="70.3" x2="84.0" y1="-106.1" y2="-106.1" />
		<line stroke="black" stroke-width="1" x1="107.9" x2="107.9" y1="-74.2" y2="-74.2" />
		<line stroke="black" stroke-width="1" x1="114.4" x2="114.4" y1="-99.3" y2="-99.3" />
		<line stroke="black" stroke-width="1" x1="110.3" x2="110.3" y1="-94.8" y2="-94.8" />
		<line stroke="black" stroke-width="1" x1="98.0" x2="98.0" y1="-117.7" y2="-117.7" />
		<line stroke="black" stroke-width="1" x1="67.0" x2="84.0" y1="-96.9" y2="-96.9" />
		<line stroke="black" stroke-width="1" x1="97.4" x2="97.4" y1="-108.6" y2="-108.6" />
		<line stroke="black" stroke-width="1" x1="71.8" x2="84.0" y1="-95.2" y2="-95.2" />
		<line stroke="black" stroke-width="1" x1="157.8" x2="157.8" y1="-0.2" y2="-73.7" />
		<line stroke="black" stroke-width="1" x1="132.9" x2="132.9" y1="-16.7" y2="-73.7" />
		<line stroke="black" stroke-width="1" x1="184.8" x2="184.8" y1="-13.7" y2="-73.7" />
		<line stroke="black" stroke-width="1" x1="166.7" x2="166.7" y1="-15.4" y2="-73.7" />
		<line stroke="black" stroke-width="1" x1="174.5" x2="174.5" y1="-9.3" y2="-73.7" />
		<line stroke="black" stroke-width="1" x1="146.3" x2="146.3" y1="-8.5" y2="-73.7" />
		<line stroke="black" stroke-width="1" x1="150.0" x2="150.0" y1="-6.7" y2="-73.7" />
		<line stroke="black" stroke-width="1" x1="159.0" x2="159.0" y1="-4.6" y2="-73.7" />
		<line stroke="black" stroke-width="1" x1="134.4" x2="134.4" y1="-16.7" y2="-73.7" />
		<line stroke="black" stroke-width="1" x1="180.9" x2="180.9" y1="-4.9" y2="-73.7" />
		<line stroke="black" stroke-width="1" x1="133.0" x2="133.0" y1="-41.3" y2="-73.7" />
		<line stroke="black" stroke-width="1" x1="181.7" x2="181.7" y1="-61.4" y2="-73.7" />
		<line stroke="black" stroke-width="1" x1="170.2" x2="170.2" y1="-47.8" y2="-73.7" />
		<line stroke="black" stroke-width="1" x1="161.2" x2="161.2" y1="-54.7" y2="-73.7" />
		<line stroke="black" stroke-width="1" x1="190.3" x2="190.3" y1="-43.9" y2="-73.7" />
		<line stroke="black" stroke-width="1" x1="155.0" x2="155.0" y1="-38.5" y2="-73.7" />
		<line stroke="black" stroke-width="1" x1="139.3" x2="139.3" y1="-55.3" y2="-73.7" />
		<line stroke="black" stroke-width="1" x1="132.9" x2="132.9" y1="-56.5" y2="-73.7" />
		<line stroke="black" stroke-width="1" x1="157.2" x2="157.2" y1="-32.2" y2="-73.7" />
		<line stroke="black" stroke-width="1" x1="195.2" x2="195.2" y1="-19.8" y2="-73.7" />
		<line stroke="black" stroke-width="1" x1="212.1" x2="212.1" y1="-20.9" y2="-73.7" />
		<line stroke="black" stroke-width="1" x1="203.6" x2="203.6" y1="-0.8" y2="-73.7" />
		<line stroke="black" stroke-width="1" x1="222.1" x2="222.1" y1="-38.0" y2="-73.7" />
		<line stroke="black" stroke-width="1" x1="198.6" x2="198.6" y1="-14.2" y2="-73.7" />
		<line stroke="black" stroke-width="1" x1="242.0" x2="222.9" y1="-39.8" y2="-73.7" />
		<line stroke="black" stroke-width="1" x1="244.6" x2="222.9" y1="-37.9" y2="-73.7" />
		<line stroke="black" stroke-width="1" x1="249.2" x2="222.9" y1="-20.6" y2="-73.7" />
		<line stroke="black" stroke-width="1" x1="250.2" x2="222.9" y1="-8.8" y2="-73.7" />
		<line stroke="black" stroke-width="1" x1="230.8" x2="222.9" y1="-36.4" y2="-73.7" />
		<line stroke="black" stroke-width="1" x1="252.6" x2="222.9" y1="-0.4" y2="-73.7" />
		<line stroke="black" stroke-width="1" x1="229.8" x2="222.9" y1="-15.5" y2="-73.7" />
		<line stroke="black" stroke-width="1" x1="153.1" x2="153.1" y1="-81.6" y2="-81.6" />
		<line stroke="black" stroke-width="1" x1="155.1" x2="155.1" y1="-89.0" y2="-89.0" />
		<line stroke="black" stroke-width="1" x1="181.9" x2="181.9" y1="-70.8" y2="-73.7" />
		<line stroke="black" stroke-width="1" x1="178.4" x2="178.4" y1="-124.6" y2="-124.6" />
		<line stroke="black" stroke-width="1" x1="142.5" x2="142.5" y1="-80.9" y2="-80.9" />
		<line stroke="black" stroke-width="1" x1="147.9" x2="147.9" y1="-84.8" y2="-84.8" />
		<line stroke="black" stroke-width="1" x1="174.4" x2="174.4" y1="-99.3" y2="-99.3" />
		<line stroke="black" stroke-width="1" x1="186.2" x2="186.2" y1="-106.9" y2="-106.9" />
		<line stroke="black" stroke-width="1" x1="129.2" x2="129.2" y1="-81.7" y2="-81.7" />
		<line stroke="black" stroke-width="1" x1="197.0" x2="197.0" y1="-64.0" y2="-73.7" />
		<line stroke="black" stroke-width="1" x1="200.7" x2="200.7" y1="-72.2" y2="-73.7" />
		<line stroke="black" stroke-width="1" x1="193.6" x2="193.6" y1="-93.5" y2="-93.5" />
		<line stroke="black" stroke-width="1" x1="250.2" x2="222.9" y1="-84.2" y2="-84.2" />
		<line stroke="black" stroke-width="1" x1="239.4" x2="222.9" y1="-92.7" y2="-92.7" />
		<line stroke="black" stroke-width="1" x1="240.6" x2="222.9" y1="-65.3" y2="-73.7" />
		<line stroke="black" stroke-width="1" x1="227.5" x2="222.9" y1="-78.4" y2="-78.4" />
		<line stroke="black" stroke-width="1" x1="216.1" x2="216.1" y1="-116.7" y2="-116.7" />
		<line stroke="black" stroke-width="1" x1="209.8" x2="209.8" y1="-101.9" y2="-101.9" />
		<line stroke="black" stroke-width="1" x1="197.6" x2="197.6" y1="-124.6" y2="-124.6" />
		<line stroke="black" stroke-width="1" x1="236.9" x2="222.9" y1="-110.2" y2="-110.2" />
		<line stroke="black" stroke-width="1" x1="233.9" x2="222.9" y1="-118.9" y2="-118.9" />
		<line stroke="black" stroke-width="1" x1="209.3" x2="209.3" y1="-118.3" y2="-118.3" />
		<line stroke="black" stroke-width="1" x1="215.4" x2="215.4" y1="-106.3" y2="-106.3" />
		<line stroke="black" stroke-width="1" x1="1.6" x2="84.0" y1="-132.7" y2="-132.7" />
		<line stroke="black" stroke-width="1" x1="8.1" x2="84.0" y1="-133.6" y2="-133.6" />
		<line stroke="black" stroke-width="1" x1="8.9" x2="84.0" y1="-135.6" y2="-135.6" />
		<line stroke="black" stroke-width="1" x1="22.8" x2="84.0" y1="-180.9" y2="-180.9" />
		<line stroke="black" stroke-width="1" x1="30.1" x2="84.0" y1="-134.7" y2="-134.7" />
		<line stroke="black" stroke-width="1" x1="5.7" x2="84.0" y1="-181.0" y2="-181.0" />
		<line stroke="black" stroke-width="1" x1="3.8" x2="84.0" y1="-164.6" y2="-164.6" />
		<line stroke="black" stroke-width="1" x1="8.1" x2="84.0" y1="-151.4" y2="-151.4" />
		<line stroke="black" stroke-width="1" x1="51.1" x2="84.0" y1="-161.1" y2="-161.1" />
		<line stroke="black" stroke-width="1" x1="56.7" x2="84.0" y1="-167.1" y2="-167.1" />
		<line stroke="black" stroke-width="1" x1="32.1" x2="84.0" y1="-176.2" y2="-176.2" />
		<line stroke="black" stroke-width="1" x1="56.1" x2="84.0" y1="-173.8" y2="-173.8" />
		<line stroke="black" stroke-width="1" x1="53.6" x2="84.0" y1="-140.0" y2="-140.0" />
		<line stroke="black" stroke-width="1" x1="60.3" x2="84.0" y1="-153.0" y2="-153.0" />
		<line stroke="black" stroke-width="1" x1="31.5" x2="84.0" y1="-179.8" y2="-179.8" />
		<line stroke="black" stroke-width="1" x1="55.4" x2="84.0" y1="-135.0" y2="-135.0" />
		<line stroke="black" stroke-width="1" x1="84.4" x2="84.4" y1="-137.4" y2="-137.4" />
		<line stroke="black" stroke-width="1" x1="81.3" x2="84.0" y1="-166.9" y2="-166.9" />
		<line stroke="black" stroke-width="1" x1="84.3" x2="84.3" y1="-161.7" y2="-161.7" />
		<line stroke="black" stroke-width="1" x1="71.7" x2="84.0" y1="-135.8" y2="-135.8" />
		<line stroke="black" stroke-width="1" x1="74.1" x2="84.0" y1="-131.7" y2="-131.7" />
		<line stroke="black" stroke-width="1" x1="88.0" x2="88.0" y1="-133.8" y2="-133.8" />
		<line stroke="black" stroke-width="1" x1="83.8" x2="84.0" y1="-147.7" y2="-147.7" />
		<line stroke="black" stroke-width="1" x1="84.7" x2="84.7" y1="-146.7" y2="-146.7" />
		<line stroke="black" stroke-width="1" x1="104.6" x2="104.6" y1="-144.6" y2="-144.6" />
		<line stroke="black" stroke-width="1" x1="122.3" x2="122.3" y1="-133.1" y2="-133.1" />
		<line stroke="black" stroke-width="1" x1="113.0" x2="113.0" y1="-128.6" y2="-128.6" />
		<line stroke="black" stroke-width="1" x1="117.9" x2="117.9" y1="-169.3" y2="-169.3" />
		<line stroke="black" stroke-width="1" x1="115.7" x2="115.7" y1="-170.4" y2="-170.4" />
		<line stroke="black" stroke-width="1" x1="125.2" x2="125.2" y1="-174.6" y2="-174.6" />
		<line stroke="black" stroke-width="1" x1="114.2" x2="114.2" y1="-131.8" y2="-131.8" />
		<line stroke="black" stroke-width="1" x1="5.7" x2="84.0" y1="-219.4" y2="-219.4" />
		<line stroke="black" stroke-width="1" x1="10.6" x2="84.0" y1="-196.4" y2="-196.4" />
		<line stroke="black" stroke-width="1" x1="38.5" x2="84.0" y1="-213.4" y2="-213.4" />
		<line stroke="black" stroke-width="1" x1="41.4" x2="84.0" y1="-220.2" y2="-220.2" />
		<line stroke="black" stroke-width="1" x1="37.8" x2="84.0" y1="-216.5" y2="-216.5" />
		<line stroke="black" stroke-width="1" x1="12.8" x2="84.0" y1="-197.2" y2="-197.2" />
		<line stroke="black" stroke-width="1" x1="2.9" x2="84.0" y1="-251.7" y2="-225.7" />
		<line stroke="black" stroke-width="1" x1="35.6" x2="84.0" y1="-253.3" y2="-225.7" />
		<line stroke="black" stroke-width="1" x1="34.3" x2="84.0" y1="-242.2" y2="-225.7" />
		<line stroke="black" stroke-width="1" x1="55.1" x2="84.0" y1="-232.7" y2="-225.7" />
		<line stroke="black" stroke-width="1" x1="18.6" x2="84.0" y1="-226.5" y2="-225.7" />
		<line stroke="black" stroke-width="1" x1="58.9" x2="84.0" y1="-230.3" y2="-225.7" />
		<line stroke="black" stroke-width="1" x1="51.8" x2="84.0" y1="-249.4" y2="-225.7" />
		<line stroke="black" stroke-width="1" x1="88.2" x2="88.2" y1="-194.0" y2="-194.0" />
		<line stroke="black" stroke-width="1" x1="103.3" x2="103.3" y1="-247.5" y2="-225.7" />
		<line stroke="black" stroke-width="1" x1="106.0" x2="106.0" y1="-224.4" y2="-224.4" />
		<line stroke="black" stroke-width="1" x1="125.1" x2="125.1" y1="-246.0" y2="-225.7" />
		<line stroke="black" stroke-width="1" x1="99.5" x2="99.5" y1="-242.6" y2="-225.7" />
		<line stroke="black" stroke-width="1" x1="105.0" x2="105.0" y1="-226.7" y2="-225.7" />
		<line stroke="black" stroke-width="1" x1="111.8" x2="111.8" y1="-192.4" y2="-192.4" />
		<line stroke="black" stroke-width="1" x1="112.6" x2="112.6" y1="-206.5" y2="-206.5" />
		<line stroke="black" stroke-width="1" x1="115.8" x2="115.8" y1="-238.5" y2="-225.7" />
		<line stroke="black" stroke-width="1" x1="125.9" x2="125.9" y1="-206.1" y2="-206.1" />
		<line stroke="black" stroke-width="1" x1="141.3" x2="141.3" y1="-156.4" y2="-156.4" />
		<line stroke="black" stroke-width="1" x1="150.5" x2="150.5" y1="-180.0" y2="-180.0" />
		<line stroke="black" stroke-width="1" x1="160.5" x2="160.5" y1="-181.6" y2="-181.6" />
		<line stroke="black" stroke-width="1" x1="135.3" x2="135.3" y1="-150.6" y2="-150.6" />
		<line stroke="black" stroke-width="1" x1="161.2" x2="161.2" y1="-185.7" y2="-185.7" />
		<line stroke="black" stroke-width="1" x1="134.9" x2="134.9" y1="-167.4" y2="-167.4" />
		<line stroke="black" stroke-width="1" x1="147.0" x2="147.0" y1="-136.0" y2="-136.0" />
		<line stroke="black" stroke-width="1" x1="186.8" x2="186.8" y1="-183.2" y2="-183.2" />
		<line stroke="black" stroke-width="1" x1="173.1" x2="173.1" y1="-186.5" y2="-186.5" />
		<line stroke="black" stroke-width="1" x1="189.2" x2="189.2" y1="-137.3" y2="-137.3" />
		<line stroke="black" stroke-width="1" x1="170.8" x2="170.8" y1="-140.5" y2="-140.5" />
		<line stroke="black" stroke-width="1" x1="171.0" x2="171.0" y1="-146.3" y2="-146.3" />
		<line stroke="black" stroke-width="1" x1="172.7" x2="172.7" y1="-178.8" y2="-178.8" />
		<line stroke="black" stroke-width="1" x1="176.0" x2="176.0" y1="-214.1" y2="-214.1" />
		<line stroke="black" stroke-width="1" x1="130.5" x2="130.5" y1="-213.6" y2="-213.6" />
		<line stroke="black" stroke-width="1" x1="127.6" x2="127.6" y1="-191.6" y2="-191.6" />
		<line stroke="black" stroke-width="1" x1="131.4" x2="131.4" y1="-216.6" y2="-216.6" />
		<line stroke="black" stroke-width="1" x1="174.2" x2="174.2" y1="-214.1" y2="-214.1" />
		<line stroke="black" stroke-width="1" x1="178.1" x2="178.1" y1="-193.0" y2="-193.0" />
		<line stroke="black" stroke-width="1" x1="162.5" x2="162.5" y1="-203.5" y2="-203.5" />
		<line stroke="black" stroke-width="1" x1="166.7" x2="166.7" y1="-205.6" y2="-205.6" />
		<line stroke="black" stroke-width="1" x1="179.5" x2="179.5" y1="-195.1" y2="-195.1" />
		<line stroke="black" stroke-width="1" x1="162.0" x2="162.0" y1="-211.1" y2="-211.1" />
		<line stroke="black" stroke-width="1" x1="179.8" x2="179.8" y1="-244.3" y2="-225.7" />
		<line stroke="black" stroke-width="1" x1="175.8" x2="175.8" y1="-238.2" y2="-225.7" />
		<line stroke="black" stroke-width="1" x1="163.7" x2="163.7" y1="-238.6" y2="-225.7" />
		<line stroke="black" stroke-width="1" x1="166.8" x2="166.8" y1="-239.6" y2="-225.7" />
		<line stroke="black" stroke-width="1" x1="169.5" x2="169.5" y1="-243.0" y2="-225.7" />
		<line stroke="black" stroke-width="1" x1="220.4" x2="220.4" y1="-129.5" y2="-129.5" />
		<line stroke="black" stroke-width="1" x1="239.3" x2="222.9" y1="-133.0" y2="-133.0" />
		<line stroke="black" stroke-width="1" x1="192.8" x2="192.8" y1="-162.2" y2="-162.2" />
		<line stroke="black" stroke-width="1" x1="221.1" x2="221.1" y1="-182.2" y2="-182.2" />
		<line stroke="black" stroke-width="1" x1="208.7" x2="208.7" y1="-146.6" y2="-146.6" />
		<line stroke="black" stroke-width="1" x1="212.8" x2="212.8" y1="-154.0" y2="-154.0" />
		<line stroke="black" stroke-width="1" x1="194.1" x2="194.1" y1="-179.1" y2="-179.1" />
		<line stroke="black" stroke-width="1" x1="251.5" x2="222.9" y1="-192.9" y2="-192.9" />
		<line stroke="black" stroke-width="1" x1="244.2" x2="222.9" y1="-214.6" y2="-214.6" />
		<line stroke="black" stroke-width="1" x1="196.9" x2="196.9" y1="-191.8" y2="-191.8" />
		<line stroke="black" stroke-width="1" x1="231.2" x2="222.9" y1="-191.1" y2="-191.1" />
		<line stroke="black" stroke-width="1" x1="228.0" x2="222.9" y1="-215.6" y2="-215.6" />
		<line stroke="black" stroke-width="1" x1="229.9" x2="222.9" y1="-194.7" y2="-194.7" />
		<line stroke="black" stroke-width="1" x1="235.6" x2="222.9" y1="-210.2" y2="-210.2" />
		<line stroke="black" stroke-width="1" x1="235.0" x2="222.9" y1="-248.3" y2="-225.7" />
		<line stroke="black" stroke-width="1" x1="241.9" x2="222.9" y1="-240.7" y2="-225.7" />
		<line stroke="black" stroke-width="1" x1="234.7" x2="222.9" y1="-227.8" y2="-225.7" />
		<line stroke="black" stroke-width="1" x1="229.8" x2="222.9" y1="-230.7" y2="-225.7" />
		<line stroke="black" stroke-width="1" x1="219.8" x2="219.8" y1="-243.8" y2="-225.7" />
		<circle cx="9.0" cy="-27.4" fill="rgb(239,159,94)" r="2.0" stroke="black" stroke-width="1" />
		<circle cx="43.7" cy="-8.0" fill="rgb(242,181,152)" r="2.0" stroke="black" stroke-width="1" />
		<circle cx="54.5" cy="-33.4" fill="rgb(177,253,83)" r="2.0" stroke="black" stroke-width="1" />
		<circle cx="1.1" cy="-20.5" fill="rgb(157,235,177)" r="2.0" stroke="black" stroke-width="1" />
		<circle cx="2.0" cy="-17.1" fill="rgb(249,62,195)" r="2.0" stroke="black" stroke-width="1" />
		<circle cx="27.6" cy="-25.6" fill="rgb(202,224,107)" r="2.0" stroke="black" stroke-width="1" />
		<circle cx="40.9" cy="-38.2" fill="rgb(228,1,56)" r="2.0" stroke="black" stroke-width="1" />
		<circle cx="36.0" cy="-56.7" fill="rgb(24,210,69)" r="2.0" stroke="black" stroke-width="1" />
		<circle cx="45.3" cy="-40.4" fill="rgb(124,183,233)" r="2.0" stroke="black" stroke-width="1" />
		<circle cx="42.5" cy="-40.9" fill="rgb(179,73,238)" r="2.0" stroke="black" stroke-width="1" />
		<circle cx="20.0" cy="-65.0" fill="rgb(120,222,244)" r="2.0" stroke="black" stroke-width="1" />
		<circle cx="54.1" cy="-39.3" fill="rgb(249,164,44)" r="2.0" stroke="black" stroke-width="1" />
		<circle cx="31.4" cy="-48.2" fill="rgb(226,70,153)" r="2.0" stroke="black" stroke-width="1" />
		<circle cx="31.7" cy="-41.0" fill="rgb(157,221,234)" r="2.0" stroke="black" stroke-width="1" />
		<circle cx="26.9" cy="-94.4" fill="rgb(69,86,234)" r="2.0" stroke="black" stroke-width="1" />
		<circle cx="7.5" cy="-125.4" fill="rgb(247,225,95)" r="2.0" stroke="black" stroke-width="1" />
		<circle cx="12.2" cy="-84.0" fill="rgb(222,124,243)" r="2.0" stroke="black" stroke-width="1" />
		<circle cx="18.9" cy="-98.3" fill="rgb(239,146,181)" r="2.0" stroke="black" stroke-width="1" />
		<circle cx="41.0" cy="-76.0" fill="rgb(124,227,180)" r="2.0" stroke="black" stroke-width="1" />
		<circle cx="59.5" cy="-120.2" fill="rgb(232,91,229)" r="2.0" stroke="black" stroke-width="1" />
		<circle cx="49.1" cy="-88.5" fill="rgb(127,164,207)" r="2.0" stroke="black" stroke-width="1" />
		<circle cx="41.5" cy="-93.5" fill="rgb(227,17,176)" r="2.0" stroke="black" stroke-width="1" />
		<circle cx="45.0" cy="-110.6" fill="rgb(230,148,242)" r="2.0" stroke="black" stroke-width="1" />
		<circle cx="34.6" cy="-116.6" fill="rgb(112,168,224)" r="2.0" stroke="black" stroke-width="1" />
		<circle cx="33.7" cy="-117.4" fill="rgb(219,119,68)" r="2.0" stroke="black" stroke-width="1" />
		<circle cx="119.8" cy="-45.7" fill="rgb(106,105,215)" r="2.0" stroke="black" stroke-width="1" />
		<circle cx="65.8" cy="-26.0" fill="rgb(113,233,177)" r="2.0" stroke="black" stroke-width="1" />
		<circle cx="95.1" cy="-59.8" fill="rgb(145,247,23)" r="2.0" stroke="black" stroke-width="1" />
		<circle cx="122.0" cy="-52.0" fill="rgb(118,192,240)" r="2.0" stroke="black" stroke-width="1" />
		<circle cx="79.4" cy="-26.6" fill="rgb(224,222,76)" r="2.0" stroke="black" stroke-width="1" />
		<circle cx="116.5" cy="-61.6" fill="rgb(153,233,172)" r="2.0" stroke="black" stroke-width="1" />
		<circle cx="68.9" cy="-72.7" fill="rgb(97,219,230)" r="2.0" stroke="black" stroke-width="1" />
		<circle cx="126.5" cy="-23.2" fill="rgb(68,163,223)" r="2.0" stroke="black" stroke-width="1" />
		<circle cx="70.4" cy="-42.6" fill="rgb(177,137,238)" r="2.0" stroke="black" stroke-width="1" />
		<circle cx="88.0" cy="-24.7" fill="rgb(114,249,163)" r="2.0" stroke="black" stroke-width="1" />
		<circle cx="66.3" cy="-108.6" fill="rgb(216,79,176)" r="2.0" stroke="black" stroke-width="1" />
		<circle cx="111.7" cy="-122.3" fill="rgb(22,249,76)" r="2.0" stroke="black" stroke-width="1" />
		<circle cx="70.3" cy="-106.1" fill="rgb(12,191,229)" r="2.0" stroke="black" stroke-width="1" />
		<circle cx="107.9" cy="-74.2" fill="rgb(61,44,229)" r="2.0" stroke="black" stroke-width="1" />
		<circle cx="114.4" cy="-99.3" fill="rgb(146,245,242)" r="2.0" stroke="black" stroke-width="1" />
		<circle cx="110.3" cy="-94.8" fill="rgb(77,59,222)" r="2.0" stroke="black" stroke-width="1" />
		<circle cx="98.0" cy="-117.7" fill="rgb(205,119,203)" r="2.0" stroke="black" stroke-width="1" />
		<circle cx="67.0" cy="-96.9" fill="rgb(176,232,145)" r="2.0" stroke="black" stroke-width="1" />
		<circle cx="97.4" cy="-108.6" fill="rgb(42,198,244)" r="2.0" stroke="black" stroke-width="1" />
		<circle cx="71.8" cy="-95.2" fill="rgb(213,198,99)" r="2.0" stroke="black" stroke-width="1" />
		<circle cx="157.8" cy="-0.2" fill="rgb(217,11,100)" r="2.0" stroke="black" stroke-width="1" />
		<circle cx="132.9" cy="-16.7" fill="rgb(212,78,101)" r="2.0" stroke="black" stroke-width="1" />
		<circle cx="184.8" cy="-13.7" fill="rgb(219,131,242)" r="2.0" stroke="black" stroke-width="1" />
		<circle cx="166.7" cy="-15.4" fill="rgb(216,26,247)" r="2.0" stroke="black" stroke-width="1" />
		<circle cx="174.5" cy="-9.3" fill="rgb(26,84,219)" r="2.0" stroke="black" stroke-width="1" />
		<circle cx="146.3" cy="-8.5" fill="rgb(244,239,24)" r="2.0" stroke="black" stroke-width="1" />
		<circle cx="150.0" cy="-6.7" fill="rgb(248,187,149)" r="2.0" stroke="black" stroke-width="1" />
		<circle cx="159.0" cy="-4.6" fill="rgb(228,135,175)" r="2.0" stroke="black" stroke-width="1" />
		<circle cx="134.4" cy="-16.7" fill="rgb(219,122,142)" r="2.0" stroke="black" stroke-width="1" />
		<circle cx="180.9" cy="-4.9" fill="rgb(149,236,206)" r="2.0" stroke="black" stroke-width="1" />
		<circle cx="133.0" cy="-41.3" fill="rgb(151,64,246)" r="2.0" stroke="black" stroke-width="1" />
		<circle cx="181.7" cy="-61.4" fill="rgb(95,94,211)" r="2.0" stroke="black" stroke-width="1" />
		<circle cx="170.2" cy="-47.8" fill="rgb(100,210,102)" r="2.0" stroke="black" stroke-width="1" />
		<circle cx="161.2" cy="-54.7" fill="rgb(56,214,88)" r="2.0" stroke="black" stroke-width="1" />
		<circle cx="190.3" cy="-43.9" fill="rgb(104,250,91)" r="2.0" stroke="black" stroke-width="1" />
		<circle cx="155.0" cy="-38.5" fill="rgb(42,151,253)" r="2.0" stroke="black" stroke-width="1" />
		<circle cx="139.3" cy="-55.3" fill="rgb(43,155,214)" r="2.0" stroke="black" stroke-width="1" />
		<circle cx="132.9" cy="-56.5" fill="rgb(203,11,236)" r="2.0" stroke="black" stroke-width="1" />
		<circle cx="157.2" cy="-32.2" fill="rgb(229,252,25)" r="2.0" stroke="black" stroke-width="1" />
		<circle cx="195.2" cy="-19.8" fill="rgb(154,130,233)" r="2.0" stroke="black" stroke-width="1" />
		<circle cx="212.1" cy="-20.9" fill="rgb(92,135,235)" r="2.0" stroke="black" stroke-width="1" />
		<circle cx="203.6" cy="-0.8" fill="rgb(227,38,76)" r="2.0" stroke="black" stroke-width="1" />
		<circle cx="222.1" cy="-38.0" fill="rgb(95,217,75)" r="2.0" stroke="black" stroke-width="1" />
		<circle cx="198.6" cy="-14.2" fill="rgb(227,43,152)" r="2.0" stroke="black" stroke-width="1" />
		<circle cx="242.0" cy="-39.8" fill="rgb(59,125,236)" r="2.0" stroke="black" stroke-width="1" />
		<circle cx="244.6" cy="-37.9" fill="rgb(121,246,59)" r="2.0" stroke="black" stroke-width="1" />
		<circle cx="249.2" cy="-20.6" fill="rgb(215,221,61)" r="2.0" stroke="black" stroke-width="1" />
		<circle cx="250.2" cy="-8.8" fill="rgb(226,146,223)" r="2.0" stroke="black" stroke-width="1" />
		<circle cx="230.8" cy="-36.4" fill="rgb(34,7,251)" r="2.0" stroke="black" stroke-width="1" />
		<circle cx="252.6" cy="-0.4" fill="rgb(108,137,236)" r="2.0" stroke="black" stroke-width="1" />
		<circle cx="229.8" cy="-15.5" fill="rgb(47,249,134)" r="2.0" stroke="black" stroke-width="1" />
		<circle cx="153.1" cy="-81.6" fill="rgb(119,228,130)" r="2.0" stroke="black" stroke-width="1" />
		<circle cx="155.1" cy="-89.0" fill="rgb(175,81,242)" r="2.0" stroke="black" stroke-width="1" />
		<circle cx="181.9" cy="-70.8" fill="rgb(244,20,89)" r="2.0" stroke="black" stroke-width="1" />
		<circle cx="178.4" cy="-124.6" fill="rgb(242,77,221)" r="2.0" stroke="black" stroke-width="1" />
		<circle cx="142.5" cy="-80.9" fill="rgb(61,218,104)" r="2.0" stroke="black" stroke-width="1" />
		<circle cx="147.9" cy="-84.8" fill="rgb(131,215,132)" r="2.0" stroke="black" stroke-width="1" />
		<circle cx="174.4" cy="-99.3" fill="rgb(85,225,147)" r="2.0" stroke="black" stroke-width="1" />
		<circle cx="186.2" cy="-106.9" fill="rgb(19,103,205)" r="2.0" stroke="black" stroke-width="1" />
		<circle cx="129.2" cy="-81.7" fill="rgb(168,237,144)" r="2.0" stroke="black" stroke-width="1" />
		<circle cx="197.0" cy="-64.0" fill="rgb(163,227,253)" r="2.0" stroke="black" stroke-width="1" />
		<circle cx="200.7" cy="-72.2" fill="rgb(234,232,143)" r="2.0" stroke="black" stroke-width="1" />
		<circle cx="193.6" cy="-93.5" fill="rgb(14,69,244)" r="2.0" stroke="black" stroke-width="1" />
		<circle cx="250.2" cy="-84.2" fill="rgb(58,216,87)" r="2.0" stroke="black" stroke-width="1" />
		<circle cx="239.4" cy="-92.7" fill="rgb(132,247,55)" r="2.0" stroke="black" stroke-width="1" />
		<circle cx="240.6" cy="-65.3" fill="rgb(253,29,125)" r="2.0" stroke="black" stroke-width="1" />
		<circle cx="227.5" cy="-78.4" fill="rgb(211,97,209)" r="2.0" stroke="black" stroke-width="1" />
		<circle cx="216.1" cy="-116.7" fill="rgb(46,144,230)" r="2.0" stroke="black" stroke-width="1" />
		<circle cx="209.8" cy="-101.9" fill="rgb(223,239,118)" r="2.0" stroke="black" stroke-width="1" />
		<circle cx="197.6" cy="-124.6" fill="rgb(213,1,47)" r="2.0" stroke="black" stroke-width="1" />
		<circle cx="236.9" cy="-110.2" fill="rgb(166,246,94)" r="2.0" stroke="black" stroke-width="1" />
		<circle cx="233.9" cy="-118.9" fill="rgb(159,37,228)" r="2.0" stroke="black" stroke-width="1" />
		<circle cx="209.3" cy="-118.3" fill="rgb(42,221,103)" r="2.0" stroke="black" stroke-width="1" />
		<circle cx="215.4" cy="-106.3" fill="rgb(90,223,119)" r="2.0" stroke="black" stroke-width="1" />
		<circle cx="1.6" cy="-132.7" fill="rgb(44,206,119)" r="2.0" stroke="black" stroke-width="1" />
		<circle cx="8.1" cy="-133.6" fill="rgb(122,231,49)" r="2.0" stroke="black" stroke-width="1" />
		<circle cx="8.9" cy="-135.6" fill="rgb(231,127,63)" r="2.0" stroke="black" stroke-width="1" />
		<circle cx="22.8" cy="-180.9" fill="rgb(83,114,213)" r="2.0" stroke="black" stroke-width="1" />
		<circle cx="30.1" cy="-134.7" fill="rgb(130,216,249)" r="2.0" stroke="black" stroke-width="1" />
		<circle cx="5.7" cy="-181.0" fill="rgb(211,235,10)" r="2.0" stroke="black" stroke-width="1" />
		<circle cx="3.8" cy="-164.6" fill="rgb(158,229,246)" r="2.0" stroke="black" stroke-width="1" />
		<circle cx="8.1" cy="-151.4" fill="rgb(89,96,218)" r="2.0" stroke="black" stroke-width="1" />
		<circle cx="51.1" cy="-161.1" fill="rgb(224,112,140)" r="2.0" stroke="black" stroke-width="1" />
		<circle cx="56.7" cy="-167.1" fill="rgb(238,146,252)" r="2.0" stroke="black" stroke-width="1" />
		<circle cx="32.1" cy="-176.2" fill="rgb(229,52,120)" r="2.0" stroke="black" stroke-width="1" />
		<circle cx="56.1" cy="-173.8" fill="rgb(206,6,126)" r="2.0" stroke="black" stroke-width="1" />
		<circle cx="53.6" cy="-140.0" fill="rgb(99,220,78)" r="2.0" stroke="black" stroke-width="1" />
		<circle cx="60.3" cy="-153.0" fill="rgb(109,239,227)" r="2.0" stroke="black" stroke-width="1" />
		<circle cx="31.5" cy="-179.8" fill="rgb(155,71,218)" r="2.0" stroke="black" stroke-width="1" />
		<circle cx="55.4" cy="-135.0" fill="rgb(76,51,205)" r="2.0" stroke="black" stroke-width="1" />
		<circle cx="84.4" cy="-137.4" fill="rgb(134,254,177)" r="2.0" stroke="black" stroke-width="1" />
		<circle cx="81.3" cy="-166.9" fill="rgb(220,56,199)" r="2.0" stroke="black" stroke-width="1" />
		<circle cx="84.3" cy="-161.7" fill="rgb(152,118,209)" r="2.0" stroke="black" stroke-width="1" />
		<circle cx="71.7" cy="-135.8" fill="rgb(81,208,96)" r="2.0" stroke="black" stroke-width="1" />
		<circle cx="74.1" cy="-131.7" fill="rgb(255,94,89)" r="2.0" stroke="black" stroke-width="1" />
		<circle cx="88.0" cy="-133.8" fill="rgb(249,112,44)" r="2.0" stroke="black" stroke-width="1" />
		<circle cx="83.8" cy="-147.7" fill="rgb(132,126,211)" r="2.0" stroke="black" stroke-width="1" />
		<circle cx="84.7" cy="-146.7" fill="rgb(107,125,222)" r="2.0" stroke="black" stroke-width="1" />
		<circle cx="104.6" cy="-144.6" fill="rgb(75,77,235)" r="2.0" stroke="black" stroke-width="1" />
		<circle cx="122.3" cy="-133.1" fill="rgb(35,30,207)" r="2.0" stroke="black" stroke-width="1" />
		<circle cx="113.0" cy="-128.6" fill="rgb(81,223,203)" r="2.0" stroke="black" stroke-width="1" />
		<circle cx="117.9" cy="-169.3" fill="rgb(128,255,20)" r="2.0" stroke="black" stroke-width="1" />
		<circle cx="115.7" cy="-170.4" fill="rgb(156,225,162)" r="2.0" stroke="black" stroke-width="1" />
		<circle cx="125.2" cy="-174.6" fill="rgb(220,207,123)" r="2.0" stroke="black" stroke-width="1" />
		<circle cx="114.2" cy="-131.8" fill="rgb(231,226,97)" r="2.0" stroke="black" stroke-width="1" />
		<circle cx="5.7" cy="-219.4" fill="rgb(107,232,58)" r="2.0" stroke="black" stroke-width="1" />
		<circle cx="10.6" cy="-196.4" fill="rgb(88,156,231)" r="2.0" stroke="black" stroke-width="1" />
		<circle cx="38.5" cy="-213.4" fill="rgb(25,141,240)" r="2.0" stroke="black" stroke-width="1" />
		<circle cx="41.4" cy="-220.2" fill="rgb(37,90,206)" r="2.0" stroke="black" stroke-width="1" />
		<circle cx="37.8" cy="-216.5" fill="rgb(107,215,86)" r="2.0" stroke="black" stroke-width="1" />
		<circle cx="12.8" cy="-197.2" fill="rgb(187,146,222)" r="2.0" stroke="black" stroke-width="1" />
		<circle cx="2.9" cy="-251.7" fill="rgb(36,220,182)" r="2.0" stroke="black" stroke-width="1" />
		<circle cx="35.6" cy="-253.3" fill="rgb(215,234,100)" r="2.0" stroke="black" stroke-width="1" />
		<circle cx="34.3" cy="-242.2" fill="rgb(5,163,207)" r="2.0" stroke="black" stroke-width="1" />
		<circle cx="55.1" cy="-232.7" fill="rgb(205,50,72)" r="2.0" stroke="black" stroke-width="1" />
		<circle cx="18.6" cy="-226.5" fill="rgb(147,226,121)" r="2.0" stroke="black" stroke-width="1" />
		<circle cx="58.9" cy="-230.3" fill="rgb(122,207,7)" r="2.0" stroke="black" stroke-width="1" />
		<circle cx="51.8" cy="-249.4" fill="rgb(54,163,230)" r="2.0" stroke="black" stroke-width="1" />
		<circle cx="88.2" cy="-194.0" fill="rgb(153,191,246)" r="2.0" stroke="black" stroke-width="1" />
		<circle cx="103.3" cy="-247.5" fill="rgb(41,220,35)" r="2.0" stroke="black" stroke-width="1" />
		<circle cx="106.0" cy="-224.4" fill="rgb(98,131,244)" r="2.0" stroke="black" stroke-width="1" />
		<circle cx="125.1" cy="-246.0" fill="rgb(197,125,227)" r="2.0" stroke="black" stroke-width="1" />
		<circle cx="99.5" cy="-242.6" fill="rgb(137,140,208)" r="2.0" stroke="black" stroke-width="1" />
		<circle cx="105.0" cy="-226.7" fill="rgb(233,192,79)" r="2.0" stroke="black" stroke-width="1" />
		<circle cx="111.8" cy="-192.4" fill="rgb(248,55,116)" r="2.0" stroke="black" stroke-width="1" />
		<circle cx="112.6" cy="-206.5" fill="rgb(147,207,34)" r="2.0" stroke="black" stroke-width="1" />
		<circle cx="115.8" cy="-238.5" fill="rgb(225,80,111)" r="2.0" stroke="black" stroke-width="1" />
		<circle cx="125.9" cy="-206.1" fill="rgb(63,230,146)" r="2.0" stroke="black" stroke-width="1" />
		<circle cx="141.3" cy="-156.4" fill="rgb(237,25,180)" r="2.0" stroke="black" stroke-width="1" />
		<circle cx="150.5" cy="-180.0" fill="rgb(74,69,209)" r="2.0" stroke="black" stroke-width="1" />
		<circle cx="160.5" cy="-181.6" fill="rgb(210,123,134)" r="2.0" stroke="black" stroke-width="1" />
		<circle cx="135.3" cy="-150.6" fill="rgb(116,221,122)" r="2.0" stroke="black" stroke-width="1" />
		<circle cx="161.2" cy="-185.7" fill="rgb(99,255,226)" r="2.0" stroke="black" stroke-width="1" />
		<circle cx="134.9" cy="-167.4" fill="rgb(182,142,207)" r="2.0" stroke="black" stroke-width="1" />
		<circle cx="147.0" cy="-136.0" fill="rgb(238,74,18)" r="2.0" stroke="black" stroke-width="1" />
		<circle cx="186.8" cy="-183.2" fill="rgb(152,24,216)" r="2.0" stroke="black" stroke-width="1" />
		<circle cx="173.1" cy="-186.5" fill="rgb(217,206,83)" r="2.0" stroke="black" stroke-width="1" />
		<circle cx="189.2" cy="-137.3" fill="rgb(244,83,134)" r="2.0" stroke="black" stroke-width="1" />
		<circle cx="170.8" cy="-140.5" fill="rgb(37,178,206)" r="2.0" stroke="black" stroke-width="1" />
		<circle cx="171.0" cy="-146.3" fill="rgb(6,251,112)" r="2.0" stroke="black" stroke-width="1" />
		<circle cx="172.7" cy="-178.8" fill="rgb(209,29,66)" r="2.0" stroke="black" stroke-width="1" />
		<circle cx="176.0" cy="-214.1" fill="rgb(88,157,210)" r="2.0" stroke="black" stroke-width="1" />
		<circle cx="130.5" cy="-213.6" fill="rgb(230,159,171)" r="2.0" stroke="black" stroke-width="1" />
		<circle cx="127.6" cy="-191.6" fill="rgb(176,80,215)" r="2.0" stroke="black" stroke-width="1" />
		<circle cx="131.4" cy="-216.6" fill="rgb(230,166,70)" r="2.0" stroke="black" stroke-width="1" />
		<circle cx="174.2" cy="-214.1" fill="rgb(50,57,225)" r="2.0" stroke="black" stroke-width="1" />
		<circle cx="178.1" cy="-193.0" fill="rgb(105,231,55)" r="2.0" stroke="black" stroke-width="1" />
		<circle cx="162.5" cy="-203.5" fill="rgb(251,188,65)" r="2.0" stroke="black" stroke-width="1" />
		<circle cx="166.7" cy="-205.6" fill="rgb(180,208,98)" r="2.0" stroke="black" stroke-width="1" />
		<circle cx="179.5" cy="-195.1" fill="rgb(213,246,171)" r="2.0" stroke="black" stroke-width="1" />
		<circle cx="162.0" cy="-211.1" fill="rgb(236,82,236)" r="2.0" stroke="black" stroke-width="1" />
		<circle cx="179.8" cy="-244.3" fill="rgb(220,115,212)" r="2.0" stroke="black" stroke-width="1" />
		<circle cx="175.8" cy="-238.2" fill="rgb(34,209,184)" r="2.0" stroke="black" stroke-width="1" />
		<circle cx="163.7" cy="-238.6" fill="rgb(99,214,8)" r="2.0" stroke="black" stroke-width="1" />
		<circle cx="166.8" cy="-239.6" fill="rgb(240,211,130)" r="2.0" stroke="black" stroke-width="1" />
		<circle cx="169.5" cy="-243.0" fill="rgb(212,82,210)" r="2.0" stroke="black" stroke-width="1" />
		<circle cx="220.4" cy="-129.5" fill="rgb(177,122,232)" r="2.0" stroke="black" stroke-width="1" />
		<circle cx="239.3" cy="-133.0" fill="rgb(142,250,240)" r="2.0" stroke="black" stroke-width="1" />
		<circle cx="192.8" cy="-162.2" fill="rgb(68,207,110)" r="2.0" stroke="black" stroke-width="1" />
		<circle cx="221.1" cy="-182.2" fill="rgb(232,192,146)" r="2.0" stroke="black" stroke-width="1" />
		<circle cx="208.7" cy="-146.6" fill="rgb(205,133,79)" r="2.0" stroke="black" stroke-width="1" />
		<circle cx="212.8" cy="-154.0" fill="rgb(155,39,221)" r="2.0" stroke="black" stroke-width="1" />
		<circle cx="194.1" cy="-179.1" fill="rgb(211,123,237)" r="2.0" stroke="black" stroke-width="1" />
		<circle cx="251.5" cy="-192.9" fill="rgb(219,241,54)" r="2.0" stroke="black" stroke-width="1" />
		<circle cx="244.2" cy="-214.6" fill="rgb(206,95,182)" r="2.0" stroke="black" stroke-width="1" />
		<circle cx="196.9" cy="-191.8" fill="rgb(39,195,207)" r="2.0" stroke="black" stroke-width="1" />
		<circle cx="231.2" cy="-191.1" fill="rgb(207,248,33)" r="2.0" stroke="black" stroke-width="1" />
		<circle cx="228.0" cy="-215.6" fill="rgb(128,208,156)" r="2.0" stroke="black" stroke-width="1" />
		<circle cx="229.9" cy="-194.7" fill="rgb(230,222,138)" r="2.0" stroke="black" stroke-width="1" />
		<circle cx="235.6" cy="-210.2" fill="rgb(101,228,8)" r="2.0" stroke="black" stroke-width="1" />
		<circle cx="235.0" cy="-248.3" fill="rgb(239,255,90)" r="2.0" stroke="black" stroke-width="1" />
		<circle cx="241.9" cy="-240.7" fill="rgb(69,134,221)" r="2.0" stroke="black" stroke-width="1" />
		<circle cx="234.7" cy="-227.8" fill="rgb(209,45,169)" r="2.0" stroke="black" stroke-width="1" />
		<circle cx="229.8" cy="-230.7" fill="rgb(213,78,74)" r="2.0" stroke="black" stroke-width="1" />
		<circle cx="219.8" cy="-243.8" fill="rgb(250,17,153)" r="2.0" stroke="black" stroke-width="1" />
		<rect fill="none" height="152.0" stroke="black" stroke-width="1" width="138.9" x="84.0" y="-225.7" />
		<circle cx="84.0" cy="-73.7" fill="rgb(239,159,94)" r="1.0" stroke="black" stroke-width="0.5" />
		<circle cx="84.0" cy="-73.7" fill="rgb(242,181,152)" r="1.0" stroke="black" stroke-width="0.5" />
		<circle cx="84.0" cy="-73.7" fill="rgb(177,253,83)" r="1.0" stroke="black" stroke-width="0.5" />
		<circle cx="84.0" cy="-73.7" fill="rgb(157,235,177)" r="1.0" stroke="black" stroke-width="0.5" />
		<circle cx="84.0" cy="-73.7" fill="rgb(249,62,195)" r="1.0" stroke="black" stroke-width="0.5" />
		<circle cx="84.0" cy="-73.7" fill="rgb(202,224,107)" r="1.0" stroke="black" stroke-width="0.5" />
		<circle cx="84.0" cy="-73.7" fill="rgb(228,1,56)" r="1.0" stroke="black" stroke-width="0.5" />
		<circle cx="84.0" cy="-73.7" fill="rgb(24,210,69)" r="1.0" stroke="black" stroke-width="0.5" />
		<circle cx="84.0" cy="-73.7" fill="rgb(124,183,233)" r="1.0" stroke="black" stroke-width="0.5" />
		<circle cx="84.0" cy="-73.7" fill="rgb(179,73,238)" r="1.0" stroke="black" stroke-width="0.5" />
		<circle cx="84.0" cy="-73.7" fill="rgb(120,222,244)" r="1.0" stroke="black" stroke-width="0.5" />
		<circle cx="84.0" cy="-73.7" fill="rgb(249,164,44)" r="1.0" stroke="black" stroke-width="0.5" />
		<circle cx="84.0" cy="-73.7" fill="rgb(226,70,153)" r="1.0" stroke="black" stroke-width="0.5" />
		<circle cx="84.0" cy="-73.7" fill="rgb(157,221,234)" r="1.0" stroke="black" stroke-width="0.5" />
		<circle cx="84.0" cy="-94.4" fill="rgb(69,86,234)" r="1.0" stroke="black" stroke-width="0.5" />
		<circle cx="84.0" cy="-125.4" fill="rgb(247,225,95)" r="1.0" stroke="black" stroke-width="0.5" />
		<circle cx="84.0" cy="-84.0" fill="rgb(222,124,243)" r="1.0" stroke="black" stroke-width="0.5" />
		<circle cx="84.0" cy="-98.3" fill="rgb(239,146,181)" r="1.0" stroke="black" stroke-width="0.5" />
		<circle cx="84.0" cy="-76.0" fill="rgb(124,227,180)" r="1.0" stroke="black" stroke-width="0.5" />
		<circle cx="84.0" cy="-120.2" fill="rgb(232,91,229)" r="1.0" stroke="black" stroke-width="0.5" />
		<circle cx="84.0" cy="-88.5" fill="rgb(127,164,207)" r="1.0" stroke="black" stroke-width="0.5" />
		<circle cx="84.0" cy="-93.5" fill="rgb(227,17,176)" r="1.0" stroke="black" stroke-width="0.5" />
		<circle cx="84.0" cy="-110.6" fill="rgb(230,148,242)" r="1.0" stroke="black" stroke-width="0.5" />
		<circle cx="84.0" cy="-116.6" fill="rgb(112,168,224)" r="1.0" stroke="black" stroke-width="0.5" />
		<circle cx="84.0" cy="-117.4" fill="rgb(219,119,68)" r="1.0" stroke="black" stroke-width="0.5" />
		<circle cx="119.8" cy="-73.7" fill="rgb(106,105,215)" r="1.0" stroke="black" stroke-width="0.5" />
		<circle cx="84.0" cy="-73.7" fill="rgb(113,233,177)" r="1.0" stroke="black" stroke-width="0.5" />
		<circle cx="95.1" cy="-73.7" fill="rgb(145,247,23)" r="1.0" stroke="black" stroke-width="0.5" />
		<circle cx="122.0" cy="-73.7" fill="rgb(118,192,240)" r="1.0" stroke="black" stroke-width="0.5" />
		<circle cx="84.0" cy="-73.7" fill="rgb(224,222,76)" r="1.0" stroke="black" stroke-width="0.5" />
		<circle cx="116.5" cy="-73.7" fill="rgb(153,233,172)" r="1.0" stroke="black" stroke-width="0.5" />
		<circle cx="84.0" cy="-73.7" fill="rgb(97,219,230)" r="1.0" stroke="black" stroke-width="0.5" />
		<circle cx="126.5" cy="-73.7" fill="rgb(68,163,223)" r="1.0" stroke="black" stroke-width="0.5" />
		<circle cx="84.0" cy="-73.7" fill="rgb(177,137,238)" r="1.0" stroke="black" stroke-width="0.5" />
		<circle cx="88.0" cy="-73.7" fill="rgb(114,249,163)" r="1.0" stroke="black" stroke-width="0.5" />
		<circle cx="84.0" cy="-108.6" fill="rgb(216,79,176)" r="1.0" stroke="black" stroke-width="0.5" />
		<circle cx="111.7" cy="-122.3" fill="rgb(22,249,76)" r="1.0" stroke="black" stroke-width="0.5" />
		<circle cx="84.0" cy="-106.1" fill="rgb(12,191,229)" r="1.0" stroke="black" stroke-width="0.5" />
		<circle cx="107.9" cy="-74.2" fill="rgb(61,44,229)" r="1.0" stroke="black" stroke-width="0.5" />
		<circle cx="114.4" cy="-99.3" fill="rgb(146,245,242)" r="1.0" stroke="black" stroke-width="0.5" />
		<circle cx="110.3" cy="-94.8" fill="rgb(77,59,222)" r="1.0" stroke="black" stroke-width="0.5" />
		<circle cx="98.0" cy="-117.7" fill="rgb(205,119,203)" r="1.0" stroke="black" stroke-width="0.5" />
		<circle cx="84.0" cy="-96.9" fill="rgb(176,232,145)" r="1.0" stroke="black" stroke-width="0.5" />
		<circle cx="97.4" cy="-108.6" fill="rgb(42,198,244)" r="1.0" stroke="black" stroke-width="0.5" />
		<circle cx="84.0" cy="-95.2" fill="rgb(213,198,99)" r="1.0" stroke="black" stroke-width="0.5" />
		<circle cx="157.8" cy="-73.7" fill="rgb(217,11,100)" r="1.0" stroke="black" stroke-width="0.5" />
		<circle cx="132.9" cy="-73.7" fill="rgb(212,78,101)" r="1.0" stroke="black" stroke-width="0.5" />
		<circle cx="184.8" cy="-73.7" fill="rgb(219,131,242)" r="1.0" stroke="black" stroke-width="0.5" />
		<circle cx="166.7" cy="-73.7" fill="rgb(216,26,247)" r="1.0" stroke="black" stroke-width="0.5" />
		<circle cx="174.5" cy="-73.7" fill="rgb(26,84,219)" r="1.0" stroke="black" stroke-width="0.5" />
		<circle cx="146.3" cy="-73.7" fill="rgb(244,239,24)" r="1.0" stroke="black" stroke-width="0.5" />
		<circle cx="150.0" cy="-73.7" fill="rgb(248,187,149)" r="1.0" stroke="black" stroke-width="0.5" />
		<circle cx="159.0" cy="-73.7" fill="rgb(228,135,175)" r="1.0" stroke="black" stroke-width="0.5" />
		<circle cx="134.4" cy="-73.7" fill="rgb(219,122,142)" r="1.0" stroke="black" stroke-width="0.5" />
		<circle cx="180.9" cy="-73.7" fill="rgb(149,236,206)" r="1.0" stroke="black" stroke-width="0.5" />
		<circle cx="133.0" cy="-73.7" fill="rgb(151,64,246)" r="1.0" stroke="black" stroke-width="0.5" />
		<circle cx="181.7" cy="-73.7" fill="rgb(95,94,211)" r="1.0" stroke="black" stroke-width="0.5" />
		<circle cx="170.2" cy="-73.7" fill="rgb(100,210,102)" r="1.0" stroke="black" stroke-width="0.5" />
		<circle cx="161.2" cy="-73.7" fill="rgb(56,214,88)" r="1.0" stroke="black" stroke-width="0.5" />
		<circle cx="190.3" cy="-73.7" fill="rgb(104,250,91)" r="1.0" stroke="black" stroke-width="0.5" />
		<circle cx="155.0" cy="-73.7" fill="rgb(42,151,253)" r="1.0" stroke="black" stroke-width="0.5" />
		<circle cx="139.3" cy="-73.7" fill="rgb(43,155,214)" r="1.0" stroke="black" stroke-width="0.5" />
		<circle cx="132.9" cy="-73.7" fill="rgb(203,11,236)" r="1.0" stroke="black" stroke-width="0.5" />
		<circle cx="157.2" cy="-73.7" fill="rgb(229,252,25)" r="1.0" stroke="black" stroke-width="0.5" />
		<circle cx="195.2" cy="-73.7" fill="rgb(154,130,233)" r="1.0" stroke="black" stroke-width="0.5" />
		<circle cx="212.1" cy="-73.7" fill="rgb(92,135,235)" r="1.0" stroke="black" stroke-width="0.5" />
		<circle cx="203.6" cy="-73.7" fill="rgb(227,38,76)" r="1.0" stroke="black" stroke-width="0.5" />
		<circle cx="222.1" cy="-73.7" fill="rgb(95,217,75)" r="1.0" stroke="black" stroke-width="0.5" />
		<circle cx="198.6" cy="-73.7" fill="rgb(227,43,152)" r="1.0" stroke="black" stroke-width="0.5" />
		<circle cx="222.9" cy="-73.7" fill="rgb(59,125,236)" r="1.0" stroke="black" stroke-width="0.5" />
		<circle cx="222.9" cy="-73.7" fill="rgb(121,246,59)" r="1.0" stroke="black" stroke-width="0.5" />
		<circle cx="222.9" cy="-73.7" fill="rgb(215,221,61)" r="1.0" stroke="black" stroke-width="0.5" />
		<circle cx="222.9" cy="-73.7" fill="rgb(226,146,223)" r="1.0" stroke="black" stroke-width="0.5" />
		<circle cx="222.9" cy="-73.7" fill="rgb(34,7,251)" r="1.0" stroke="black" stroke-width="0.5" />
		<circle cx="222.9" cy="-73.7" fill="rgb(108,137,236)" r="1.0" stroke="black" stroke-width="0.5" />
		<circle cx="222.9" cy="-73.7" fill="rgb(47,249,134)" r="1.0" stroke="black" stroke-width="0.5" />
		<circle cx="153.1" cy="-81.6" fill="rgb(119,228,130)" r="1.0" stroke="black" stroke-width="0.5" />
		<circle cx="155.1" cy="-89.0" fill="rgb(175,81,242)" r="1.0" stroke="black" stroke-width="0.5" />
		<circle cx="181.9" cy="-73.7" fill="rgb(244,20,89)" r="1.0" stroke="black" stroke-width="0.5" />
		<circle cx="178.4" cy="-124.6" fill="rgb(242,77,221)" r="1.0" stroke="black" stroke-width="0.5" />
		<circle cx="142.5" cy="-80.9" fill="rgb(61,218,104)" r="1.0" stroke="black" stroke-width="0.5" />
		<circle cx="147.9" cy="-84.8" fill="rgb(131,215,132)" r="1.0" stroke="black" stroke-width="0.5" />
		<circle cx="174.4" cy="-99.3" fill="rgb(85,225,147)" r="1.0" stroke="black" stroke-width="0.5" />
		<circle cx="186.2" cy="-106.9" fill="rgb(19,103,205)" r="1.0" stroke="black" stroke-width="0.5" />
		<circle cx="129.2" cy="-81.7" fill="rgb(168,237,144)" r="1.0" stroke="black" stroke-width="0.5" />
		<circle cx="197.0" cy="-73.7" fill="rgb(163,227,253)" r="1.0" stroke="black" stroke-width="0.5" />
		<circle cx="200.7" cy="-73.7" fill="rgb(234,232,143)" r="1.0" stroke="black" stroke-width="0.5" />
		<circle cx="193.6" cy="-93.5" fill="rgb(14,69,244)" r="1.0" stroke="black" stroke-width="0.5" />
		<circle cx="222.9" cy="-84.2" fill="rgb(58,216,87)" r="1.0" stroke="black" stroke-width="0.5" />
		<circle cx="222.9" cy="-92.7" fill="rgb(132,247,55)" r="1.0" stroke="black" stroke-width="0.5" />
		<circle cx="222.9" cy="-73.7" fill="rgb(253,29,125)" r="1.0" stroke="black" stroke-width="0.5" />
		<circle cx="222.9" cy="-78.4" fill="rgb(211,97,209)" r="1.0" stroke="black" stroke-width="0.5" />
		<circle cx="216.1" cy="-116.7" fill="rgb(46,144,230)" r="1.0" stroke="black" stroke-width="0.5" />
		<circle cx="209.8" cy="-101.9" fill="rgb(223,239,118)" r="1.0" stroke="black" stroke-width="0.5" />
		<circle cx="197.6" cy="-124.6" fill="rgb(213,1,47)" r="1.0" stroke="black" stroke-width="0.5" />
		<circle cx="222.9" cy="-110.2" fill="rgb(166,246,94)" r="1.0" stroke="black" stroke-width="0.5" />
		<circle cx="222.9" cy="-118.9" fill="rgb(159,37,228)" r="1.0" stroke="black" stroke-width="0.5" />
		<circle cx="209.3" cy="-118.3" fill="rgb(42,221,103)" r="1.0" stroke="black" stroke-width="0.5" />
		<circle cx="215.4" cy="-106.3" fill="rgb(90,223,119)" r="1.0" stroke="black" stroke-width="0.5" />
		<circle cx="84.0" cy="-132.7" fill="rgb(44,206,119)" r="1.0" stroke="black" stroke-width="0.5" />
		<circle cx="84.0" cy="-133.6" fill="rgb(122,231,49)" r="1.0" stroke="black" stroke-width="0.5" />
		<circle cx="84.0" cy="-135.6" fill="rgb(231,127,63)" r="1.0" stroke="black" stroke-width="0.5" />
		<circle cx="84.0" cy="-180.9" fill="rgb(83,114,213)" r="1.0" stroke="black" stroke-width="0.5" />
		<circle cx="84.0" cy="-134.7" fill="rgb(130,216,249)" r="1.0" stroke="black" stroke-width="0.5" />
		<circle cx="84.0" cy="-181.0" fill="rgb(211,235,10)" r="1.0" stroke="black" stroke-width="0.5" />
		<circle cx="84.0" cy="-164.6" fill="rgb(158,229,246)" r="1.0" stroke="black" stroke-width="0.5" />
		<circle cx="84.0" cy="-151.4" fill="rgb(89,96,218)" r="1.0" stroke="black" stroke-width="0.5" />
		<circle cx="84.0" cy="-161.1" fill="rgb(224,112,140)" r="1.0" stroke="black" stroke-width="0.5" />
		<circle cx="84.0" cy="-167.1" fill="rgb(238,146,252)" r="1.0" stroke="black" stroke-width="0.5" />
		<circle cx="84.0" cy="-176.2" fill="rgb(229,52,120)" r="1.0" stroke="black" stroke-width="0.5" />
		<circle cx="84.0" cy="-173.8" fill="rgb(206,6,126)" r="1.0" stroke="black" stroke-width="0.5" />
		<circle cx="84.0" cy="-140.0" fill="rgb(99,220,78)" r="1.0" stroke="black" stroke-width="0.5" />
		<circle cx="84.0" cy="-153.0" fill="rgb(109,239,227)" r="1.0" stroke="black" stroke-width="0.5" />
		<circle cx="84.0" cy="-179.8" fill="rgb(155,71,218)" r="1.0" stroke="black" stroke-width="0.5" />
		<circle cx="84.0" cy="-135.0" fill="rgb(76,51,205)" r="1.0" stroke="black" stroke-width="0.5" />
		<circle cx="84.4" cy="-137.4" fill="rgb(134,254,177)" r="1.0" stroke="black" stroke-width="0.5" />
		<circle cx="84.0" cy="-166.9" fill="rgb(220,56,199)" r="1.0" stroke="black" stroke-width="0.5" />
		<circle cx="84.3" cy="-161.7" fill="rgb(152,118,209)" r="1.0" stroke="black" stroke-width="0.5" />
		<circle cx="84.0" cy="-135.8" fill="rgb(81,208,96)" r="1.0" stroke="black" stroke-width="0.5" />
		<circle cx="84.0" cy="-131.7" fill="rgb(255,94,89)" r="1.0" stroke="black" stroke-width="0.5" />
		<circle cx="88.0" cy="-133.8" fill="rgb(249,112,44)" r="1.0" stroke="black" stroke-width="0.5" />
		<circle cx="84.0" cy="-147.7" fill="rgb(132,126,211)" r="1.0" stroke="black" stroke-width="0.5" />
		<circle cx="84.7" cy="-146.7" fill="rgb(107,125,222)" r="1.0" stroke="black" stroke-width="0.5" />
		<circle cx="104.6" cy="-144.6" fill="rgb(75,77,235)" r="1.0" stroke="black" stroke-width="0.5" />
		<circle cx="122.3" cy="-133.1" fill="rgb(35,30,207)" r="1.0" stroke="black" stroke-width="0.5" />
		<circle cx="113.0" cy="-128.6" fill="rgb(81,223,203)" r="1.0" stroke="black" stroke-width="0.5" />
		<circle cx="117.9" cy="-169.3" fill="rgb(128,255,20)" r="1.0" stroke="black" stroke-width="0.5" />
		<circle cx="115.7" cy="-170.4" fill="rgb(156,225,162)" r="1.0" stroke="black" stroke-width="0.5" />
		<circle cx="125.2" cy="-174.6" fill="rgb(220,207,123)" r="1.0" stroke="black" stroke-width="0.5" />
		<circle cx="114.2" cy="-131.8" fill="rgb(231,226,97)" r="1.0" stroke="black" stroke-width="0.5" />
		<circle cx="84.0" cy="-219.4" fill="rgb(107,232,58)" r="1.0" stroke="black" stroke-width="0.5" />
		<circle cx="84.0" cy="-196.4" fill="rgb(88,156,231)" r="1.0" stroke="black" stroke-width="0.5" />
		<circle cx="84.0" cy="-213.4" fill="rgb(25,141,240)" r="1.0" stroke="black" stroke-width="0.5" />
		<circle cx="84.0" cy="-220.2" fill="rgb(37,90,206)" r="1.0" stroke="black" stroke-width="0.5" />
		<circle cx="84.0" cy="-216.5" fill="rgb(107,215,86)" r="1.0" stroke="black" stroke-width="0.5" />
		<circle cx="84.0" cy="-197.2" fill="rgb(187,146,222)" r="1.0" stroke="black" stroke-width="0.5" />
		<circle cx="84.0" cy="-225.7" fill="rgb(36,220,182)" r="1.0" stroke="black" stroke-width="0.5" />
		<circle cx="84.0" cy="-225.7" fill="rgb(215,234,100)" r="1.0" stroke="black" stroke-width="0.5" />
		<circle cx="84.0" cy="-225.7" fill="rgb(5,163,207)" r="1.0" stroke="black" stroke-width="0.5" />
		<circle cx="84.0" cy="-225.7" fill="rgb(205,50,72)" r="1.0" stroke="black" stroke-width="0.5" />
		<circle cx="84.0" cy="-225.7" fill="rgb(147,226,121)" r="1.0" stroke="black" stroke-width="0.5" />
		<circle cx="84.0" cy="-225.7" fill="rgb(122,207,7)" r="1.0" stroke="black" stroke-width="0.5" />
		<circle cx="84.0" cy="-225.7" fill="rgb(54,163,230)" r="1.0" stroke="black" stroke-width="0.5" />
		<circle cx="88.2" cy="-194.0" fill="rgb(153,191,246)" r="1.0" stroke="black" stroke-width="0.5" />
		<circle cx="103.3" cy="-225.7" fill="rgb(41,220,35)" r="1.0" stroke="black" stroke-width="0.5" />
		<circle cx="106.0" cy="-224.4" fill="rgb(98,131,244)" r="1.0" stroke="black" stroke-width="0.5" />
		<circle cx="125.1" cy="-225.7" fill="rgb(197,125,227)" r="1.0" stroke="black" stroke-width="0.5" />
		<circle cx="99.5" cy="-225.7" fill="rgb(137,140,208)" r="1.0" stroke="black" stroke-width="0.5" />
		<circle cx="105.0" cy="-225.7" fill="rgb(233,192,79)" r="1.0" stroke="black" stroke-width="0.5" />
		<circle cx="111.8" cy="-192.4" fill="rgb(248,55,116)" r="1.0" stroke="black" stroke-width="0.5" />
		<circle cx="112.6" cy="-206.5" fill="rgb(147,207,34)" r="1.0" stroke="black" stroke-width="0.5" />
		<circle cx="115.8" cy="-225.7" fill="rgb(225,80,111)" r="1.0" stroke="black" stroke-width="0.5" />
		<circle cx="125.9" cy="-206.1" fill="rgb(63,230,146)" r="1.0" stroke="black" stroke-width="0.5" />
		<circle cx="141.3" cy="-156.4" fill="rgb(237,25,180)" r="1.0" stroke="black" stroke-width="0.5" />
		<circle cx="150.5" cy="-180.0" fill="rgb(74,69,209)" r="1.0" stroke="black" stroke-width="0.5" />
		<circle cx="160.5" cy="-181.6" fill="rgb(210,123,134)" r="1.0" stroke="black" stroke-width="0.5" />
		<circle cx="135.3" cy="-150.6" fill="rgb(116,221,122)" r="1.0" stroke="black" stroke-width="0.5" />
		<circle cx="161.2" cy="-185.7" fill="rgb(99,255,226)" r="1.0" stroke="black" stroke-width="0.5" />
		<circle cx="134.9" cy="-167.4" fill="rgb(182,142,207)" r="1.0" stroke="black" stroke-width="0.5" />
		<circle cx="147.0" cy="-136.0" fill="rgb(238,74,18)" r="1.0" stroke="black" stroke-width="0.5" />
		<circle cx="186.8" cy="-183.2" fill="rgb(152,24,216)" r="1.0" stroke="black" stroke-width="0.5" />
		<circle cx="173.1" cy="-186.5" fill="rgb(217,206,83)" r="1.0" stroke="black" stroke-width="0.5" />
		<circle cx="189.2" cy="-137.3" fill="rgb(244,83,134)" r="1.0" stroke="black" stroke-width="0.5" />
		<circle cx="170.8" cy="-140.5" fill="rgb(37,178,206)" r="1.0" stroke="black" stroke-width="0.5" />
		<circle cx="171.0" cy="-146.3" fill="rgb(6,251,112)" r="1.0" stroke="black" stroke-width="0.5" />
		<circle cx="172.7" cy="-178.8" fill="rgb(209,29,66)" r="1.0" stroke="black" stroke-width="0.5" />
		<circle cx="176.0" cy="-214.1" fill="rgb(88,157,210)" r="1.0" stroke="black" stroke-width="0.5" />
		<circle cx="130.5" cy="-213.6" fill="rgb(230,159,171)" r="1.0" stroke="black" stroke-width="0.5" />
		<circle cx="127.6" cy="-191.6" fill="rgb(176,80,215)" r="1.0" stroke="black" stroke-width="0.5" />
		<circle cx="131.4" cy="-216.6" fill="rgb(230,166,70)" r="1.0" stroke="black" stroke-width="0.5" />
		<circle cx="174.2" cy="-214.1" fill="rgb(50,57,225)" r="1.0" stroke="black" stroke-width="0.5" />
		<circle cx="178.1" cy="-193.0" fill="rgb(105,231,55)" r="1.0" stroke="black" stroke-width="0.5" />
		<circle cx="162.5" cy="-203.5" fill="rgb(251,188,65)" r="1.0" stroke="black" stroke-width="0.5" />
		<circle cx="166.7" cy="-205.6" fill="rgb(180,208,98)" r="1.0" stroke="black" stroke-width="0.5" />
		<circle cx="179.5" cy="-195.1" fill="rgb(213,246,171)" r="1.0" stroke="black" stroke-width="0.5" />
		<circle cx="162.0" cy="-211.1" fill="rgb(236,82,236)" r="1.0" stroke="black" stroke-width="0.5" />
		<circle cx="179.8" cy="-225.7" fill="rgb(220,115,212)" r="1.0" stroke="black" stroke-width="0.5" />
		<circle cx="175.8" cy="-225.7" fill="rgb(34,209,184)" r="1.0" stroke="black" stroke-width="0.5" />
		<circle cx="163.7" cy="-225.7" fill="rgb(99,214,8)" r="1.0" stroke="black" stroke-width="0.5" />
		<circle cx="166.8" cy="-225.7" fill="rgb(240,211,130)" r="1.0" stroke="black" stroke-width="0.5" />
		<circle cx="169.5" cy="-225.7" fill="rgb(212,82,210)" r="1.0" stroke="black" stroke-width="0.5" />
		<circle cx="220.4" cy="-129.5" fill="rgb(177,122,232)" r="1.0" stroke="black" stroke-width="0.5" />
		<circle cx="222.9" cy="-133.0" fill="rgb(142,250,240)" r="1.0" stroke="black" stroke-width="0.5" />
		<circle cx="192.8" cy="-162.2" fill="rgb(68,207,110)" r="1.0" stroke="black" stroke-width="0.5" />
		<circle cx="221.1" cy="-182.2" fill="rgb(232,192,146)" r="1.0" stroke="black" stroke-width="0.5" />
		<circle cx="208.7" cy="-146.6" fill="rgb(205,133,79)" r="1.0" stroke="black" stroke-width="0.5" />
		<circle cx="212.8" cy="-154.0" fill="rgb(155,39,221)" r="1.0" stroke="black" stroke-width="0.5" />
		<circle cx="194.1" cy="-179.1" fill="rgb(211,123,237)" r="1.0" stroke="black" stroke-width="0.5" />
		<circle cx="222.9" cy="-192.9" fill="rgb(219,241,54)" r="1.0" stroke="black" stroke-width="0.5" />
		<circle cx="222.9" cy="-214.6" fill="rgb(206,95,182)" r="1.0" stroke="black" stroke-width="0.5" />
		<circle cx="196.9" cy="-191.8" fill="rgb(39,195,207)" r="1.0" stroke="black" stroke-width="0.5" />
		<circle cx="222.9" cy="-191.1" fill="rgb(207,248,33)" r="1.0" stroke="black" stroke-width="0.5" />
		<circle cx="222.9" cy="-215.6" fill="rgb(128,208,156)" r="1.0" stroke="black" stroke-width="0.5" />
		<circle cx="222.9" cy="-194.7" fill="rgb(230,222,138)" r="1.0" stroke="black" stroke-width="0.5" />
		<circle cx="222.9" cy="-210.2" fill="rgb(101,228,8)" r="1.0" stroke="black" stroke-width="0.5" />
		<circle cx="222.9" cy="-225.7" fill="rgb(239,255,90)" r="1.0" stroke="black" stroke-width="0.5" />
		<circle cx="222.9" cy="-225.7" fill="rgb(69,134,221)" r="1.0" stroke="black" stroke-width="0.5" />
		<circle cx="222.9" cy="-225.7" fill="rgb(209,45,169)" r="1.0" stroke="black" stroke-width="0.5" />
		<circle cx="222.9" cy="-225.7" fill="rgb(213,78,74)" r="1.0" stroke="black" stroke-width="0.5" />
		<circle cx="219.8" cy="-225.7" fill="rgb(250,17,153)" r="1.0" stroke="black" stroke-width="0.5" />
		<rect fill="none" height="256.0" stroke="none" stroke-width="1" width="256.0" x="0.0" y="-256.0" />
	</g>
</svg>